{
    "name": "Paper",
    "author": "Blaq Annabiosis",
    "website": "http://timeproduction.ru/",
    "licenseUrl": "http://creativecommons.org/licenses/by-sa/3.0/",
    "licenseType": "CC BY-SA 3.0",
    "downloadUrl": "http://www.subtlepatterns.com"
}
